Cyclistic Bike-Share Analysis
…
[1] 788189     22

Code

# station_names validation
all_trips_v2 |> 
  group_by(start_station_id) |> 
  filter(n_distinct(start_station_name) > 1) |> 
  summarise(names = list(unique(start_station_name))) |>
  ungroup() |>
  unnest(cols = names)

# A tibble: 48 × 2
   start_station_id names                               
              <dbl> <chr>                               
 1                2 Buckingham Fountain (Temp)          
 2                2 Buckingham Fountain                 
 3               19 Loomis St & Taylor St (*)           
 4               19 Throop (Loomis) St & Taylor St      
 5               23 Orleans St & Elm St (*)             
 6               23 Orleans St & Elm St                 
 7               89 Financial Pl & Ida B Wells Dr (Temp)
 8               89 Financial Pl & Ida B Wells Dr       
 9              103 Clinton St & Polk St (*)            
10              103 Clinton St & Polk St                
# ℹ 38 more rows
…
